<?xml version="1.0" encoding="UTF-8" standalone="no"?>
<!-- Created with Inkscape (http://www.inkscape.org/) -->

<svg
   xmlns:dc="http://purl.org/dc/elements/1.1/"
   xmlns:cc="http://creativecommons.org/ns#"
   xmlns:rdf="http://www.w3.org/1999/02/22-rdf-syntax-ns#"
   xmlns:svg="http://www.w3.org/2000/svg"
   xmlns="http://www.w3.org/2000/svg"
   xmlns:sodipodi="http://sodipodi.sourceforge.net/DTD/sodipodi-0.dtd"
   xmlns:inkscape="http://www.inkscape.org/namespaces/inkscape"
   width="30"
   height="30"
   id="svg3291"
   version="1.1"
   inkscape:version="0.48.5 r10040"
   sodipodi:docname="phone_hangup.svg">
  <defs
     id="defs3293" />
  <sodipodi:namedview
     id="base"
     pagecolor="#ffffff"
     bordercolor="#666666"
     borderopacity="1.0"
     inkscape:pageopacity="0.0"
     inkscape:pageshadow="2"
     inkscape:zoom="7.9999999"
     inkscape:cx="19.313932"
     inkscape:cy="24.713786"
     inkscape:current-layer="layer1"
     showgrid="true"
     inkscape:grid-bbox="true"
     inkscape:document-units="px"
     inkscape:window-width="1440"
     inkscape:window-height="838"
     inkscape:window-x="1600"
     inkscape:window-y="34"
     inkscape:window-maximized="0" />
  <metadata
     id="metadata3296">
    <rdf:RDF>
      <cc:Work
         rdf:about="">
        <dc:format>image/svg+xml</dc:format>
        <dc:type
           rdf:resource="http://purl.org/dc/dcmitype/StillImage" />
        <dc:title></dc:title>
      </cc:Work>
    </rdf:RDF>
  </metadata>
  <g
     id="layer1"
     inkscape:label="Layer 1"
     inkscape:groupmode="layer"
     transform="translate(0,-18)">
    <g
       transform="translate(-74.132071,-251.37548)"
       id="g2998">
      <path
         style="fill:#a9a28a"
         inkscape:connector-curvature="0"
         d="m 75.326,278.487 c -2.397,5.57 -1.088,12.033 3.059,16.395 4.143,4.359 10.814,5.643 16.346,3.428 5.553,-2.227 9.154,-7.615 9.391,-13.547 0.334,-8.396 -6.783,-15.277 -15.004,-15.389 -5.975,0.08 -11.417,3.594 -13.792,9.113 z m 13.791,-6.699 c 6.263,0.082 11.396,4.574 12.466,10.717 1.067,6.141 -3.025,12.135 -8.828,13.951 -5.995,1.875 -12.345,-1.227 -15.06,-6.74 -2.758,-5.604 -0.521,-12.531 4.57,-15.902 2.036,-1.35 4.426,-1.995 6.852,-2.026 z"
         id="path3000" />
      <path
         style="fill:#a9a28a"
         inkscape:connector-curvature="0"
         d="m 94.044,276.337 c -0.117,-0.441 -0.412,-0.773 -0.823,-0.947 -0.308,-0.16 -0.653,-0.205 -1.005,-0.109 -1.849,0.248 -3.694,0.5 -5.54,0.75 -1.929,0.262 -1.183,3.127 0.717,2.867 0.322,-0.041 0.738,0.006 0.922,-0.176 -2.2,2.199 -1.563,1.562 -3.697,3.697 -0.358,0.357 -0.49,0.762 -0.465,1.143 0,0.014 -0.004,0.025 -0.004,0.039 0,3.02 0,2.076 0,5.107 h 0.001 c 0,0.41 0,0.963 0,1.967 0,2.01 3.017,2.01 3.017,0 0,-3.018 0,-2.074 0,-5.105 h -0.002 c 0,-0.328 0,-0.764 0,-1.434 1.622,-1.623 1.12,-1.121 3.108,-3.109 0.11,0.361 -0.024,0.479 -0.06,0.691 -0.317,1.904 2.619,2.713 2.938,0.789 0.301,-1.791 0.61,-3.574 0.912,-5.369 0.077,-0.272 0.069,-0.543 -0.019,-0.801 z"
         id="path3002" />
    </g>
  </g>
</svg>
