<?xml version="1.0" encoding="UTF-8"?>
<svg width="50px" height="50px" viewBox="0 0 50 50" version="1.1" xmlns="http://www.w3.org/2000/svg" xmlns:xlink="http://www.w3.org/1999/xlink">
    <!-- Generator: Sketch 41.2 (35397) - http://www.bohemiancoding.com/sketch -->
    <title>dtmf_star_over</title>
    <desc>Created with Sketch.</desc>
    <defs></defs>
    <g id="Page-1" stroke="none" stroke-width="1" fill="none" fill-rule="evenodd">
        <g id="dtmf_star_over">
            <ellipse id="Oval-356-Copy-11" fill="#ff5722" cx="25" cy="25" rx="25" ry="25"></ellipse>
            <polygon id="*" fill="#FFFFFF" points="26.655 17.33 26.655 13.58 24.255 13.58 24.255 17.33 20.865 16.01 20.055 18.32 23.535 19.49 21.315 22.43 23.325 23.9 25.425 20.81 27.645 23.9 29.625 22.43 27.405 19.49 30.945 18.32 30.135 16.01"></polygon>
        </g>
    </g>
</svg>