<?xml version="1.0" encoding="UTF-8"?>
<svg width="50px" height="50px" viewBox="0 0 50 50" version="1.1" xmlns="http://www.w3.org/2000/svg" xmlns:xlink="http://www.w3.org/1999/xlink">
    <!-- Generator: Sketch 41.2 (35397) - http://www.bohemiancoding.com/sketch -->
    <title>dtmf_3_default</title>
    <desc>Created with Sketch.</desc>
    <defs></defs>
    <g id="Page-1" stroke="none" stroke-width="1" fill="none" fill-rule="evenodd">
        <g id="dtmf_3_default">
            <ellipse id="Oval-356-Copy-11" fill="#595959" cx="25" cy="25" rx="25" ry="25"></ellipse>
            <path d="M24,22.49 L24,25.49 C24.5200026,25.49 25.0649971,25.5049998 25.635,25.535 C26.2050028,25.5650001 26.7299976,25.6749991 27.21,25.865 C27.6900024,26.055001 28.0849985,26.3599979 28.395,26.78 C28.7050015,27.2000021 28.86,27.809996 28.86,28.61 C28.86,29.6300051 28.5300033,30.434997 27.87,31.025 C27.2099967,31.615003 26.4000048,31.91 25.44,31.91 C24.8199969,31.91 24.2850022,31.8000011 23.835,31.58 C23.3849978,31.3599989 23.0100015,31.0650019 22.71,30.695 C22.4099985,30.3249981 22.1800008,29.8850026 22.02,29.375 C21.8599992,28.8649974 21.7700001,28.3300028 21.75,27.77 L17.7,27.77 C17.6799999,28.9900061 17.8549982,30.0699953 18.225,31.01 C18.5950018,31.9500047 19.1199966,32.7449967 19.8,33.395 C20.4800034,34.0450033 21.3049951,34.5399983 22.275,34.88 C23.2450049,35.2200017 24.3199941,35.39 25.5,35.39 C26.5200051,35.39 27.4999953,35.2400015 28.44,34.94 C29.3800047,34.6399985 30.2099964,34.2000029 30.93,33.62 C31.6500036,33.0399971 32.2249979,32.3200043 32.655,31.46 C33.0850022,30.5999957 33.3,29.6200055 33.3,28.52 C33.3,27.319994 32.9700033,26.2900043 32.31,25.43 C31.6499967,24.5699957 30.7400058,24.0100013 29.58,23.75 L29.58,23.69 C30.5600049,23.4099986 31.2949975,22.8800039 31.785,22.1 C32.2750025,21.3199961 32.52,20.4200051 32.52,19.4 C32.52,18.4599953 32.3100021,17.6300036 31.89,16.91 C31.4699979,16.1899964 30.9250033,15.5800025 30.255,15.08 C29.5849967,14.5799975 28.8300042,14.2050013 27.99,13.955 C27.1499958,13.7049988 26.3100042,13.58 25.47,13.58 C24.3899946,13.58 23.4100044,13.7549983 22.53,14.105 C21.6499956,14.4550018 20.8950032,14.9499968 20.265,15.59 C19.6349969,16.2300032 19.1450017,16.9949955 18.795,17.885 C18.4449983,18.7750044 18.2500002,19.7599946 18.21,20.84 L22.26,20.84 C22.2399999,19.7599946 22.5049972,18.8650035 23.055,18.155 C23.6050028,17.4449964 24.4199946,17.09 25.5,17.09 C26.2800039,17.09 26.969997,17.3299976 27.57,17.81 C28.170003,18.2900024 28.47,18.9799955 28.47,19.88 C28.47,20.480003 28.3250015,20.9599982 28.035,21.32 C27.7449985,21.6800018 27.3750023,21.9549991 26.925,22.145 C26.4749977,22.335001 25.9900026,22.4499998 25.47,22.49 C24.9499974,22.5300002 24.4600023,22.5300002 24,22.49 Z" id="3" fill="#FFFFFF"></path>
        </g>
    </g>
</svg>