<?xml version="1.0" encoding="UTF-8"?>
<svg width="50px" height="50px" viewBox="0 0 50 50" version="1.1" xmlns="http://www.w3.org/2000/svg" xmlns:xlink="http://www.w3.org/1999/xlink">
    <!-- Generator: Sketch 43.2 (39069) - http://www.bohemiancoding.com/sketch -->
    <title>menu_agents_selected</title>
    <desc>Created with Sketch.</desc>
    <defs></defs>
    <g id="Symbols" stroke="none" stroke-width="1" fill="none" fill-rule="evenodd">
        <g id="menu_agents_selected">
            <g id="Group-5">
                <path d="M25,49.8489426 C38.8071187,49.8489426 50,38.6898767 50,24.9244713 C50,11.1590659 38.8071187,0 25,0 C11.1928813,0 0,11.1590659 0,24.9244713 C0,38.6898767 11.1928813,49.8489426 25,49.8489426 Z" id="Oval-7-Copy" fill="#ff5722"></path>
                <g id="Group-19" transform="translate(7.000000, 12.960725)" fill="#FFFFFF">
                    <g id="Group-20">
                        <g id="Group-17" transform="translate(0.000000, 3.681153)">
                            <ellipse id="Oval-3" cx="6.61327577" cy="4.03373062" rx="4.02547221" ry="4.03373062"></ellipse>
                            <path d="M13.2265515,16.1349225 C13.2265515,12.3158918 10.2656871,9.2199557 6.61327577,9.2199557 C2.96086442,9.2199557 0,12.3158918 0,16.1349225" id="Oval-3-Copy"></path>
                        </g>
                        <g id="Group-17-Copy" transform="translate(23.125000, 3.681153)">
                            <ellipse id="Oval-3" cx="6.61327577" cy="4.03373062" rx="4.02547221" ry="4.03373062"></ellipse>
                            <path d="M13.2265515,16.1349225 C13.2265515,12.3158918 10.2656871,9.2199557 6.61327577,9.2199557 C2.96086442,9.2199557 0,12.3158918 0,16.1349225" id="Oval-3-Copy"></path>
                        </g>
                        <g id="Group-17-Copy-2" transform="translate(8.325000, 0.000000)">
                            <ellipse id="Oval-3" cx="9.85343099" cy="5.95767008" rx="5.9977406" ry="5.95767008"></ellipse>
                            <path d="M19.706862,23.8306803 C19.706862,18.190114 15.2953307,13.6175316 9.85343099,13.6175316 C4.41153132,13.6175316 0,18.190114 0,23.8306803" id="Oval-3-Copy"></path>
                        </g>
                    </g>
                </g>
            </g>
        </g>
    </g>
</svg>