<?xml version="1.0" encoding="UTF-8"?>
<svg width="50px" height="50px" viewBox="0 0 50 50" version="1.1" xmlns="http://www.w3.org/2000/svg" xmlns:xlink="http://www.w3.org/1999/xlink">
    <!-- Generator: Sketch 43.2 (39069) - http://www.bohemiancoding.com/sketch -->
    <title>menu_rappels_selected</title>
    <desc>Created with Sketch.</desc>
    <defs>
        <polygon id="path-1" points="25.5266818 13.0273066 25.5266818 25.5891239 0 25.5891239 0 13.0273066 0 0.465489426 25.5266818 0.465489426 25.5266818 13.0273066"></polygon>
        <polygon id="path-3" points="0.242390909 0.43152568 2.42816364 0.43152568 2.42816364 5.69055589 0.242390909 5.69055589"></polygon>
    </defs>
    <g id="Symbols" stroke="none" stroke-width="1" fill="none" fill-rule="evenodd">
        <g id="menu_rappels_selected">
            <g id="Group-5">
                <path d="M25,49.8489426 C38.8071187,49.8489426 50,38.6898767 50,24.9244713 C50,11.1590659 38.8071187,0 25,0 C11.1928813,0 0,11.1590659 0,24.9244713 C0,38.6898767 11.1928813,49.8489426 25,49.8489426 Z" id="Oval-7-Copy-2" fill="#ff5722"></path>
                <g id="Group-9" transform="translate(12.000000, 8.972810)">
                    <g id="Group-3" transform="translate(0.000000, 1.894642)">
                        <mask id="mask-2" fill="white">
                            <use xlink:href="#path-1"></use>
                        </mask>
                        <g id="Clip-2"></g>
                        <path d="M23.6363636,21.3142281 C23.6363636,22.6448625 22.5355,23.7283293 21.1829091,23.7283293 L4.34613636,23.7283293 C2.99118182,23.7283293 1.89031818,22.6448625 1.89031818,21.3142281 L1.89031818,8.40567825 L23.6363636,8.40567825 L23.6363636,21.3142281 Z M25.5266818,8.40567825 L25.5266818,4.34107855 C25.5266818,2.24044411 23.6434545,0.529462236 21.3052273,0.470723565 L21.3052273,2.86970393 C21.3052273,4.23232477 20.1783636,5.34138066 18.7938636,5.34138066 C17.4087727,5.34138066 16.2825,4.23232477 16.2825,2.86970393 L16.2825,0.465489426 L9.16381818,0.465489426 L9.16381818,2.86970393 C9.16381818,4.23232477 8.03754545,5.34138066 6.65245455,5.34138066 C5.26736364,5.34138066 4.14109091,4.23232477 4.14109091,2.86970393 L4.14109091,0.474794562 C1.8395,0.570753776 0,2.26545166 0,4.34107855 L0,21.3113202 C0,23.6695906 1.95059091,25.5893565 4.34613636,25.5893565 L21.1829091,25.5893565 C23.5784545,25.5893565 25.5266818,23.6695906 25.5266818,21.3113202 L25.5266818,8.40567825 Z" id="Fill-1" fill="#FFFFFF" mask="url(#mask-2)"></path>
                    </g>
                    <g id="Group-6" transform="translate(5.318182, 0.149929)">
                        <mask id="mask-4" fill="white">
                            <use xlink:href="#path-3"></use>
                        </mask>
                        <g id="Clip-5"></g>
                        <path d="M0.242390909,1.50615257 L0.242390909,4.61406798 C0.242390909,5.20901511 0.731663636,5.69055589 1.33439091,5.69055589 C1.93889091,5.69055589 2.42816364,5.20901511 2.42816364,4.61406798 L2.42816364,1.50615257 C2.42816364,0.913531722 1.93889091,0.431409366 1.33439091,0.431409366 C0.731663636,0.431409366 0.242390909,0.913531722 0.242390909,1.50615257" id="Fill-4" fill="#FFFFFF" mask="url(#mask-4)"></path>
                    </g>
                    <path d="M18.7936864,0.581570997 C18.1909591,0.581570997 17.7016864,1.06369335 17.7016864,1.65864048 L17.7016864,4.76422961 C17.7016864,5.35917674 18.1909591,5.84071752 18.7936864,5.84071752 C19.3981864,5.84071752 19.88805,5.35917674 19.88805,4.76422961 L19.88805,1.6563142 C19.88805,1.06369335 19.3981864,0.581570997 18.7936864,0.581570997" id="Fill-7" fill="#FFFFFF"></path>
                </g>
                <path d="M20.0677083,30.0255 L22.5916983,27.5181958 C22.6851535,27.4251946 22.8348219,27.4344947 22.9375978,27.536755 L24.0385621,28.6062689 C24.2535172,28.8197619 24.6086963,28.8197619 24.8330958,28.6062689 L27.7431142,25.7372842 C27.8459313,25.6351467 27.9113417,25.4864677 27.9113417,25.3472527 C27.9113417,25.2078329 27.8552521,25.0593177 27.7431142,24.9572212 L26.6608326,23.8877484 C26.5580567,23.7854471 26.539374,23.6183726 26.6328291,23.5255353 L29.1568191,21.0181082 C29.1941847,20.9809487 29.2315502,20.9623894 29.2876398,20.9623894 C29.3625359,20.9623894 29.446629,20.9995079 29.5027186,21.0551858 L30.3252971,21.8725311 L30.5964243,22.2810809 C31.4845781,24.3241575 30.8675514,26.274192 29.9046665,27.2214933 L26.3028904,30.7962219 C25.5643638,31.5298661 24.5080237,31.9291568 23.3115009,31.9291568 C22.6103811,31.9291568 21.9092613,31.7899008 21.2922347,31.520566 L20.862242,31.2605314 L20.0301778,30.4340907 C19.9740882,30.378372 19.9740882,30.2948348 19.9740882,30.2577162 C19.9834502,30.164715 20.0208158,30.0811778 20.0677083,30.0255" id="Fill-1-Copy-7" fill="#FFFFFF" transform="translate(25.500000, 26.445773) rotate(-270.000000) translate(-25.500000, -26.445773) "></path>
            </g>
        </g>
    </g>
</svg>