<svg width="50.00000000000001" height="50.00000000000001" xmlns="http://www.w3.org/2000/svg">
 <!-- Generator: Sketch 43.2 (39069) - http://www.bohemiancoding.com/sketch -->

 <title>menu_historique_default</title>
 <desc>Created with Sketch.</desc>
 <g>
  <title>background</title>
  <rect x="-1" y="-1" width="52" height="52" id="canvas_background" fill="none"/>
 </g>
 <g>
  <title>Layer 1</title>
  <g id="Symbols" fill="none" fill-rule="evenodd">
   <g id="menu_historique_default">
    <g id="Group-8">
     <path d="m24.8717,49.72064c13.80712,0 25,-11.15906 25,-24.92447c0,-13.7654 -11.19288,-24.92447 -25,-24.92447c-13.80712,0 -25,11.15907 -25,24.92447c0,13.76541 11.19288,24.92447 25,24.92447z" id="Oval-7-Copy" fill="#595959"/>
    </g>
   </g>
  </g>
  <g stroke="null" id="svg_10">
   <path stroke="null" id="svg_9" d="m35.723292,12.126774l-21.104706,0c-1.940094,0 -3.517451,1.577357 -3.517451,3.517451l0,15.82853c0,1.940094 1.577357,3.517451 3.517451,3.517451l5.276177,0l0,4.616655c0,0.390217 0.318769,0.659522 0.659522,0.659522c0.131904,0 0.269305,-0.038472 0.390217,-0.131904l6.864526,-5.144272l7.914265,0c1.940094,0 3.517451,-1.577357 3.517451,-3.517451l0,-15.82853c0,-1.940094 -1.577357,-3.517451 -3.517451,-3.517451zm0.879363,19.345981c0,0.48365 -0.395713,0.879363 -0.879363,0.879363l-8.793628,0l-0.70349,0.527618l-3.693324,2.769993l0,-3.29761l-7.914265,0c-0.48365,0 -0.879363,-0.395713 -0.879363,-0.879363l0,-15.82853c0,-0.48365 0.395713,-0.879363 0.879363,-0.879363l21.104706,0c0.48365,0 0.879363,0.395713 0.879363,0.879363l0,15.82853z" fill="#ffffff"/>
  </g>
 </g>
</svg>