<?xml version="1.0" encoding="UTF-8"?>
<svg xmlns="http://www.w3.org/2000/svg" xmlns:xlink="http://www.w3.org/1999/xlink" width="35px" height="56px" viewBox="0 0 35 56" version="1.1">
<g id="surface1">
<path style=" stroke:none;fill-rule:nonzero;fill:rgb(35%,35%,35%);fill-opacity:1;" d="M 29.75 0 L 5.25 0 C 2.351562 0 0 2.351562 0 5.25 L 0 50.75 C 0 53.648438 2.351562 56 5.25 56 L 29.75 56 C 32.648438 56 35 53.648438 35 50.75 L 35 5.25 C 35 2.351562 32.648438 0 29.75 0 Z M 17.5 52.5 C 15.5625 52.5 14 50.9375 14 49 C 14 47.0625 15.5625 45.5 17.5 45.5 C 19.4375 45.5 21 47.0625 21 49 C 21 50.9375 19.4375 52.5 17.5 52.5 Z M 29.75 40.6875 C 29.75 41.410156 29.160156 42 28.4375 42 L 6.5625 42 C 5.839844 42 5.25 41.410156 5.25 40.6875 L 5.25 6.5625 C 5.25 5.839844 5.839844 5.25 6.5625 5.25 L 28.4375 5.25 C 29.160156 5.25 29.75 5.839844 29.75 6.5625 Z M 29.75 40.6875 "/>
</g>
</svg>
