<?xml version="1.0" encoding="UTF-8" standalone="no"?>
<svg
   aria-hidden="true"
   focusable="false"
   data-prefix="fas"
   data-icon="deaf"
   class="svg-inline--fa fa-deaf fa-w-16"
   role="img"
   viewBox="0 0 512 512"
   version="1.1"
   id="svg51"
   sodipodi:docname="undeaf-solid.svg"
   inkscape:version="1.1.1 (3bf5ae0d25, 2021-09-20)"
   xmlns:inkscape="http://www.inkscape.org/namespaces/inkscape"
   xmlns:sodipodi="http://sodipodi.sourceforge.net/DTD/sodipodi-0.dtd"
   xmlns="http://www.w3.org/2000/svg"
   xmlns:svg="http://www.w3.org/2000/svg">
  <defs
     id="defs55" />
  <sodipodi:namedview
     id="namedview53"
     pagecolor="#ffffff"
     bordercolor="#666666"
     borderopacity="1.0"
     inkscape:pageshadow="2"
     inkscape:pageopacity="0.0"
     inkscape:pagecheckerboard="0"
     showgrid="false"
     inkscape:zoom="0.78320313"
     inkscape:cx="571.37157"
     inkscape:cy="209.39651"
     inkscape:window-width="1920"
     inkscape:window-height="1001"
     inkscape:window-x="1920"
     inkscape:window-y="0"
     inkscape:window-maximized="1"
     inkscape:current-layer="svg51" />
  <path
     fill="#555555"
     d="m 216,260 c 0,15.464 -12.536,28 -28,28 -15.464,0 -28,-12.536 -28,-28 0,-44.112 35.888,-80 80,-80 44.112,0 80,35.888 80,80 0,15.464 -12.536,28 -28,28 -15.464,0 -28,-12.536 -28,-28 0,-13.234 -10.767,-24 -24,-24 -13.233,0 -24,10.766 -24,24 z M 240,84 c -97.047,0 -176,78.953 -176,176 0,15.464 12.536,28 28,28 15.464,0 28,-12.536 28,-28 0,-66.168 53.832,-120 120,-120 66.168,0 120,53.832 120,120 0,75.164 -71.009,70.311 -71.997,143.622 L 288,404 c 0,28.673 -23.327,52 -52,52 -15.464,0 -28,12.536 -28,28 0,15.464 12.536,28 28,28 59.475,0 107.876,-48.328 108,-107.774 C 344.595,369.798 416,355.986 416,260 416,162.953 337.047,84 240,84 Z"
     id="path49"
     sodipodi:nodetypes="sssssssssssssssccssscss" />
</svg>
