<?xml version="1.0" encoding="UTF-8" standalone="no"?>
<svg
   xmlns:dc="http://purl.org/dc/elements/1.1/"
   xmlns:cc="http://creativecommons.org/ns#"
   xmlns:rdf="http://www.w3.org/1999/02/22-rdf-syntax-ns#"
   xmlns:svg="http://www.w3.org/2000/svg"
   xmlns="http://www.w3.org/2000/svg"
   xmlns:xlink="http://www.w3.org/1999/xlink"
   xmlns:sodipodi="http://sodipodi.sourceforge.net/DTD/sodipodi-0.dtd"
   xmlns:inkscape="http://www.inkscape.org/namespaces/inkscape"
   version="1.1"
   preserveAspectRatio="xMidYMid meet"
   viewBox="0 0 80 80"
   width="80"
   height="80"
   id="svg37"
   sodipodi:docname="forward_dnd_logo.svg"
   inkscape:version="0.92.1 r15371">
  <metadata
     id="metadata41">
    <rdf:RDF>
      <cc:Work
         rdf:about="">
        <dc:format>image/svg+xml</dc:format>
        <dc:type
           rdf:resource="http://purl.org/dc/dcmitype/StillImage" />
        <dc:title />
      </cc:Work>
    </rdf:RDF>
  </metadata>
  <sodipodi:namedview
     pagecolor="#ffffff"
     bordercolor="#666666"
     borderopacity="1"
     objecttolerance="10"
     gridtolerance="10"
     guidetolerance="10"
     inkscape:pageopacity="0"
     inkscape:pageshadow="2"
     inkscape:window-width="1920"
     inkscape:window-height="1018"
     id="namedview39"
     showgrid="false"
     inkscape:zoom="2.95"
     inkscape:cx="-34.576271"
     inkscape:cy="-43.622369"
     inkscape:window-x="0"
     inkscape:window-y="25"
     inkscape:window-maximized="1"
     inkscape:current-layer="svg37" />
  <defs
     id="defs3">
    <path
       d="M4.65 40.51C4.65 21.37 20.16 5.85 39.3 5.85C58.44 5.85 73.96 21.37 73.96 40.51C73.96 59.65 58.44 75.16 39.3 75.16C20.16 75.16 4.65 59.65 4.65 40.51Z"
       id="abXrtakT2" />
  </defs>
  <g
     id="g35">
    <g
       id="g33">
      <g
         id="g31">
        <g
           id="g23">
          <filter
             id="shadow13027110"
             x="-4.35"
             y="-3.15"
             width="88.31"
             height="88.31"
             filterUnits="userSpaceOnUse"
             primitiveUnits="userSpaceOnUse">
            <feFlood
               id="feFlood5" />
            <feComposite
               in2="SourceAlpha"
               operator="in"
               id="feComposite7" />
            <feGaussianBlur
               stdDeviation="1"
               id="feGaussianBlur9" />
            <feOffset
               dx="1"
               dy="1"
               result="afterOffset"
               id="feOffset11" />
            <feFlood
               flood-color="#000000"
               flood-opacity="0.5"
               id="feFlood13" />
            <feComposite
               in2="afterOffset"
               operator="in"
               id="feComposite15" />
            <feMorphology
               operator="dilate"
               radius="1"
               id="feMorphology17" />
            <feComposite
               in2="SourceAlpha"
               operator="out"
               id="feComposite19" />
          </filter>
        </g>
        <g
           id="g29">
        </g>
      </g>
    </g>
  </g>
  <path
     d="m 52.42937,41.446318 v -3.570616 q 0,-0.725278 -0.530008,-1.255295 -0.530017,-0.530018 -1.255276,-0.530018 H 29.220324 q -0.725264,0 -1.255278,0.530018 -0.530012,0.530017 -0.530012,1.255295 v 3.570616 q 0,0.725288 0.530012,1.255305 0.530014,0.530008 1.255278,0.530008 h 21.423762 q 0.725259,0 1.255276,-0.530008 0.530008,-0.530017 0.530008,-1.255305 z m 8.926564,-1.785303 q 0,5.830151 -2.873245,10.753703 -2.873235,4.923551 -7.796805,7.796786 -4.923503,2.873235 -10.753655,2.873235 -5.830199,0 -10.75371,-2.873235 -4.923565,-2.873235 -7.796805,-7.796786 -2.873242,-4.923552 -2.873242,-10.753703 0,-5.830161 2.873242,-10.753713 2.87324,-4.923551 7.796805,-7.796786 4.923511,-2.873235 10.75371,-2.873235 5.830152,0 10.753655,2.873235 4.92357,2.873235 7.796805,7.796786 2.873245,4.923552 2.873245,10.753713 z"
     id="path4566"
     inkscape:connector-curvature="0"
     style="fill:#cd4846;stroke-width:0.02789548" />
</svg>
