<?xml version="1.0" encoding="UTF-8" standalone="no"?>
<svg
   xmlns:dc="http://purl.org/dc/elements/1.1/"
   xmlns:cc="http://creativecommons.org/ns#"
   xmlns:rdf="http://www.w3.org/1999/02/22-rdf-syntax-ns#"
   xmlns:svg="http://www.w3.org/2000/svg"
   xmlns="http://www.w3.org/2000/svg"
   xmlns:sodipodi="http://sodipodi.sourceforge.net/DTD/sodipodi-0.dtd"
   xmlns:inkscape="http://www.inkscape.org/namespaces/inkscape"
   width="20px"
   height="20px"
   viewBox="0 0 20 20"
   version="1.1"
   id="svg3775"
   sodipodi:docname="agent_available_blanc.svg"
   inkscape:version="0.92.3 (2405546, 2018-03-11)">
  <metadata
     id="metadata3779">
    <rdf:RDF>
      <cc:Work
         rdf:about="">
        <dc:format>image/svg+xml</dc:format>
        <dc:type
           rdf:resource="http://purl.org/dc/dcmitype/StillImage" />
        <dc:title>agent_available</dc:title>
      </cc:Work>
    </rdf:RDF>
  </metadata>
  <sodipodi:namedview
     pagecolor="#ffffff"
     bordercolor="#666666"
     borderopacity="1"
     objecttolerance="10"
     gridtolerance="10"
     guidetolerance="10"
     inkscape:pageopacity="0"
     inkscape:pageshadow="2"
     inkscape:window-width="1920"
     inkscape:window-height="1016"
     id="namedview3777"
     showgrid="false"
     inkscape:zoom="41.8"
     inkscape:cx="10"
     inkscape:cy="10"
     inkscape:window-x="0"
     inkscape:window-y="27"
     inkscape:window-maximized="1"
     inkscape:current-layer="svg3775" />
  <!-- Generator: Sketch 43.2 (39069) - http://www.bohemiancoding.com/sketch -->
  <title
     id="title3766">agent_available</title>
  <desc
     id="desc3768">Created with Sketch.</desc>
  <defs
     id="defs3770" />
  <g
     id="Symbols"
     stroke="none"
     stroke-width="1"
     fill="none"
     fill-rule="evenodd">
    <g
       id="agent_available"
       fill="#2BA41B">
      <path
         d="M17.6015322,8.57118383 C17.623227,8.49833994 17.6240696,8.4217956 17.6240696,8.34203051 L17.6240696,7.48976382 C17.6240696,5.47329685 16.8440384,3.58853822 15.4068434,2.18237013 C13.9687356,0.775174143 12.0447758,0 9.97969433,0 C7.91426178,0 5.99879741,0.775174143 4.56061942,2.18237013 C3.12377541,3.58853822 2.34655268,5.47329685 2.34655268,7.48976382 L2.34655268,8.34203051 C2.34655268,8.4217956 2.34739519,8.49833994 2.36901982,8.57118383 C1.05202398,8.67315158 -3.78653235e-29,10.0436858 -3.78653235e-29,11.7140243 C-3.78653235e-29,13.3919008 1.05286649,14.767506 2.37779605,14.8585095 C2.73214502,15.3242855 3.30365297,15.6075064 3.91202108,15.6075064 C4.96980226,15.6075064 5.82881944,14.7669578 5.82881944,13.7339862 L5.82881944,9.69385692 C5.82881944,8.69295579 5.04246943,7.87282813 4.03158841,7.8227351 L4.03158841,7.48976382 C4.03158841,4.21226834 6.63398568,1.64464104 9.98545154,1.64464104 C13.3365663,1.64464104 15.9390338,4.21226834 15.9390338,7.48976382 L15.9390338,7.8227351 C14.9280826,7.87303371 14.1418028,8.6932299 14.1418028,9.69385692 L14.1418028,13.7339862 C14.1418028,14.409591 14.5098427,15.0026897 15.0605685,15.3323031 C14.4330331,16.2332923 13.5510574,16.9464498 12.5071777,17.3813203 C12.2214237,17.0706202 11.8073262,16.8747023 11.34682,16.8747023 L9.18541061,16.8747023 C8.32562113,16.8747023 7.62626109,17.5572969 7.62626109,18.396475 L7.62626109,18.4229948 C7.62626109,19.2621729 8.32562113,19.9447675 9.18541061,19.9447675 L11.34682,19.9447675 C11.9792701,19.9447675 12.5247302,19.5750659 12.7688497,19.04556 C13.8011447,18.6791477 14.7440627,18.0981782 15.5377145,17.325471 C16.1290918,16.7499152 16.6112227,16.0934978 16.9746287,15.3807515 C17.2167824,15.2530863 17.43015,15.0761503 17.5954942,14.8585095 C18.9207046,14.7672319 19.9704818,13.3919008 19.9704818,11.7140243 C19.9704818,10.0433431 18.918528,8.67315158 17.6015322,8.57118383"
         id="Fill-1-Copy" />
    </g>
  </g>
  <path
     style="stroke-width:0.02392345;fill:#ffffff"
     d="M 8.8421053,19.895813 C 8.4105251,19.80312 7.9836589,19.466465 7.7939464,19.069165 7.7412256,18.958756 7.686355,18.811372 7.6720117,18.741645 c -0.037924,-0.184358 -0.032,-0.537162 0.011872,-0.707091 0.127304,-0.493081 0.5337973,-0.91864 1.0266423,-1.074795 0.1649488,-0.05226 0.188306,-0.05306 1.555024,-0.05306 1.364051,0 1.390397,8.94e-4 1.555024,0.05276 0.190666,0.06007 0.412846,0.187661 0.584233,0.33551 l 0.117297,0.101188 0.354977,-0.177695 c 0.633787,-0.317262 1.194154,-0.732208 1.656265,-1.226446 0.211463,-0.226165 0.528421,-0.617539 0.528741,-0.652881 7.2e-5,-0.0069 -0.06547,-0.0603 -0.145631,-0.118675 -0.373209,-0.271777 -0.634893,-0.68122 -0.726509,-1.136727 -0.03408,-0.169441 -0.03766,-0.450632 -0.03126,-2.452153 0.0081,-2.5260455 -0.0038,-2.3479749 0.182658,-2.7396556 0.27591,-0.5796186 0.817087,-0.9603287 1.495795,-1.0522705 l 0.117045,-0.015856 -0.01423,-0.470511 C 15.911217,6.4032608 15.745429,5.7131897 15.349868,4.8971292 14.801768,3.7663713 13.891478,2.8535062 12.739847,2.2797235 11.810468,1.8166747 10.794404,1.5982899 9.7624823,1.6397923 7.9711486,1.7118372 6.390072,2.4838689 5.3040565,3.8168191 4.8206421,4.4101507 4.4173316,5.2056093 4.2232854,5.9484486 4.0931443,6.4466493 4.0124792,7.113662 4.0100261,7.7118699 l -4.57e-4,0.1113913 0.1255981,0.015874 c 0.2258072,0.028539 0.4772359,0.1084445 0.698129,0.2218691 0.3082887,0.1583008 0.6036382,0.4543582 0.7631555,0.7649845 0.062343,0.1213993 0.1368823,0.3044136 0.165644,0.4066986 0.051695,0.1838428 0.052388,0.2104949 0.06049,2.3271216 0.00532,1.390373 -5.79e-4,2.216847 -0.01683,2.357036 -0.09031,0.779064 -0.6412756,1.411937 -1.4092249,1.618726 -0.2595488,0.06989 -0.7077998,0.06932 -0.9701715,-0.0012 C 3.0620729,15.436401 2.6548193,15.185924 2.460105,14.940077 2.390367,14.852027 2.37253,14.843107 2.2380124,14.829049 2.1575674,14.820649 1.994311,14.781119 1.8752214,14.741219 0.99069215,14.444831 0.32889684,13.604129 0.08177387,12.462895 0.03640026,12.253357 0.02867989,12.144651 0.02867989,11.715311 c 0,-0.427366 0.0078234,-0.538491 0.05238718,-0.744116 C 0.35826543,9.6921519 1.1747764,8.7796627 2.1960697,8.6075804 L 2.3629433,8.5794624 2.3601633,7.8746593 C 2.3571933,7.1238859 2.3794143,6.752939 2.4561053,6.2727268 2.8929233,3.5375165 4.8455857,1.2765328 7.52823,0.39972464 c 1.7233722,-0.56327517 3.655951,-0.5095642 5.321056,0.14788488 2.470054,0.97527438 4.220197,3.10202208 4.652251,5.65334688 0.08742,0.5162151 0.10575,0.7894386 0.107143,1.5968651 l 0.0014,0.7954297 0.07392,2.39e-5 c 0.137337,4.78e-5 0.45115,0.094634 0.667703,0.2012543 0.502523,0.2474189 0.917782,0.6711962 1.204318,1.2290226 0.530029,1.031858 0.535427,2.319506 0.01408,3.357889 -0.291501,0.58059 -0.685371,0.990247 -1.194473,1.242349 -0.236371,0.117049 -0.548073,0.213363 -0.691626,0.213707 -0.05982,1.43e-4 -0.10454,0.03161 -0.234411,0.164964 -0.08827,0.09063 -0.235467,0.214634 -0.327109,0.275558 -0.150886,0.100308 -0.177246,0.130482 -0.279102,0.319485 -0.440566,0.817513 -1.15809,1.655446 -1.936651,2.261644 -0.534373,0.416069 -1.297394,0.851586 -1.896042,1.082221 l -0.245325,0.09451 -0.08875,0.151348 c -0.194781,0.332176 -0.612652,0.628961 -0.999552,0.709913 -0.237961,0.04979 -2.6020791,0.04868 -2.8349286,-0.0013 z"
     id="path3781"
     inkscape:connector-curvature="0" />
  <path
     style="fill:#ffffff;stroke-width:0.02392345"
     d="M 9.4162679,19.908357 C 9.0941342,19.898432 8.8132045,19.878553 8.7583732,19.861803 8.3972055,19.751477 7.9980926,19.426207 7.8330175,19.107656 7.701972,18.854772 7.669816,18.718126 7.6701404,18.415514 c 4.929e-4,-0.460288 0.1061338,-0.716875 0.4302122,-1.044932 0.1643216,-0.166339 0.2426043,-0.225145 0.4068244,-0.305606 0.112162,-0.05496 0.2677168,-0.110037 0.34689,-0.122836 0.1875337,-0.03031 2.635433,-0.03031 2.822966,0 0.182559,0.02951 0.483338,0.178097 0.675958,0.333928 0.0823,0.06658 0.161511,0.121061 0.176017,0.121061 0.01451,0 0.178627,-0.07799 0.364713,-0.173308 0.693144,-0.355053 1.311641,-0.828057 1.761999,-1.347512 0.259608,-0.29944 0.406481,-0.490148 0.406481,-0.527797 0,-0.01688 -0.07267,-0.08871 -0.161483,-0.15962 -0.357064,-0.285097 -0.566116,-0.604339 -0.67529,-1.031236 -0.04684,-0.183158 -0.04837,-0.258045 -0.04759,-2.332535 4.43e-4,-1.178817 0.01079,-2.2563411 0.023,-2.394499 0.02084,-0.235944 0.03013,-0.2671746 0.15296,-0.5143541 0.188048,-0.3784251 0.422431,-0.6329913 0.754714,-0.8197023 0.186156,-0.104602 0.491333,-0.2100539 0.673701,-0.2327922 0.07364,-0.00918 0.146169,-0.024286 0.161184,-0.033566 0.03536,-0.021855 -0.0047,-0.9081966 -0.05731,-1.2691459 C 15.654353,4.9723835 14.724943,3.5220045 13.363318,2.6241916 12.57493,2.1043539 11.618915,1.7629451 10.655249,1.657096 10.171882,1.6040029 9.4423206,1.6294163 8.9138756,1.7177548 7.1778378,2.0079626 5.6686591,3.0365239 4.8104864,4.514367 4.2929469,5.4056115 4.0329603,6.3629624 4.0248581,7.4072926 l -0.00333,0.4288239 0.1712543,0.029052 c 0.75245,0.1276485 1.2714969,0.5739863 1.5432785,1.3270933 l 0.055802,0.154628 0.00712,2.2598582 c 0.0063,1.998494 0.00268,2.281774 -0.031276,2.449346 -0.079504,0.392368 -0.2658708,0.727568 -0.556183,1.000352 C 4.9003426,15.348843 4.5509278,15.513145 4.1373622,15.56154 3.5534239,15.629873 2.9900428,15.434045 2.554011,15.011176 2.4193945,14.880623 2.3544465,14.834749 2.2894697,14.824327 1.2116598,14.651447 0.43350995,13.828451 0.10763217,12.516746 0.05622818,12.309838 0.05114601,12.238027 0.05091347,11.715311 0.05067156,11.171514 0.05403337,11.127863 0.11447967,10.889952 0.43134007,9.6428179 1.1786161,8.8224211 2.1762881,8.6263955 l 0.201605,-0.039612 0.011352,-0.9476979 C 2.4010313,6.6551426 2.4115366,6.5292007 2.5299713,5.9519866 2.8126309,4.5743904 3.5300605,3.2543163 4.5465916,2.2413954 5.5770505,1.2145961 6.9484988,0.48128481 8.3875598,0.1876357 8.8646423,0.09028412 9.2249794,0.05056449 9.7658254,0.03571067 11.4136,-0.00954384 12.923482,0.4173177 14.272727,1.3098647 c 1.611013,1.0657105 2.728048,2.6781226 3.144373,4.5388229 0.134094,0.5993122 0.159706,0.8701081 0.173991,1.8395952 l 0.01328,0.9012014 0.147992,0.025772 c 1.203532,0.2095859 2.122774,1.4491618 2.183615,2.9445528 0.05305,1.303863 -0.564932,2.531316 -1.522113,3.023272 -0.218482,0.112291 -0.514235,0.213655 -0.702806,0.240873 -0.09872,0.01425 -0.139611,0.03993 -0.299955,0.188377 -0.10211,0.09453 -0.251298,0.222049 -0.331529,0.283367 -0.118669,0.0907 -0.16928,0.153158 -0.271379,0.334928 -0.541966,0.964889 -1.381422,1.877446 -2.284273,2.483191 -0.475592,0.319087 -1.027867,0.61487 -1.519138,0.813609 -0.245243,0.09921 -0.25316,0.104819 -0.334048,0.236618 -0.218597,0.356182 -0.641509,0.653908 -1.018863,0.717268 -0.191654,0.03218 -1.539696,0.04849 -2.2356061,0.02704 z"
     id="path3783"
     inkscape:connector-curvature="0" />
</svg>
