<?xml version="1.0" encoding="UTF-8"?>
<svg width="32px" height="26px" viewBox="0 0 32 26" version="1.1" xmlns="http://www.w3.org/2000/svg" xmlns:xlink="http://www.w3.org/1999/xlink" style="background: transparent;">
    <!-- Generator: Sketch 43.2 (39069) - http://www.bohemiancoding.com/sketch -->
    <title>stat5_light</title>
    <desc>Created with Sketch.</desc>
    <defs></defs>
    <g id="Symbols" stroke="none" stroke-width="1" fill="none" fill-rule="evenodd">
        <g id="stat5_light">
            <g id="Group-2" transform="translate(-2.000000, -1.000000)">
                <g id="Group-5" transform="translate(13.750000, 14.750000) rotate(-180.000000) translate(-13.750000, -14.750000) translate(0.750000, 0.750000)">
                    <path d="M13,23.137931 C18.5990247,23.137931 23.137931,18.5990247 23.137931,13 C23.137931,7.4009753 18.5990247,2.86206897 13,2.86206897 C7.4009753,2.86206897 2.86206897,7.4009753 2.86206897,13" id="Oval" stroke="#FFFFFF" stroke-width="2" stroke-linecap="round" transform="translate(13.000000, 13.000000) rotate(-343.000000) translate(-13.000000, -13.000000) "></path>
                    <path d="M20.2413793,13 C20.2413793,9.00069664 16.9993034,5.75862069 13,5.75862069 L20.2413793,13 Z M20.2413793,13 L13,13 L13,5.75862069 L20.2413793,13 Z" id="Combined-Shape" fill="#FFFFFF"></path>
                    <path d="M22.1724138,20.2413793 L23.137931,21.2068966" id="Path-2" stroke="#FFFFFF" stroke-width="3" stroke-linecap="round"></path>
                    <path d="M14.0749338,26.0363585 L12.0344828,26.0344828" id="Path-2-Copy-2" stroke="#FFFFFF" stroke-width="3" stroke-linecap="round"></path>
                </g>
            </g>
            <g id="Group-22" transform="translate(24.500000, 8.000000) rotate(-180.000000) translate(-24.500000, -8.000000) translate(18.000000, 1.000000)" stroke="#ff5722" stroke-width="2" stroke-linecap="round">
                <path d="M12.6898509,0.444663556 L0.401210874,13.0623106" id="Stroke-2" transform="translate(6.545531, 6.753487) rotate(-720.000000) translate(-6.545531, -6.753487) "></path>
                <polyline id="Stroke-4" transform="translate(8.513960, 4.732140) rotate(-720.000000) translate(-8.513960, -4.732140) " points="4.33815167 0.444663556 12.6897677 0.444663556 12.6897677 9.0196165"></polyline>
            </g>
        </g>
    </g>
</svg>