<?xml version="1.0" encoding="utf-8"?>
<!-- Generator: Adobe Illustrator 26.0.2, SVG Export Plug-In . SVG Version: 6.00 Build 0)  -->
<svg version="1.1" id="Calque_1" xmlns="http://www.w3.org/2000/svg" xmlns:xlink="http://www.w3.org/1999/xlink" x="0px" y="0px"
	 viewBox="0 0 700 700" style="enable-background:new 0 0 700 700;" xml:space="preserve">
<g>
	<path d="M364.3,63.3c-7.4-8.6-20.4-8.6-27.8,0L188.1,236.4c-9.9,11.7-1.9,30.2,13.6,30.2h91.5v188.5c0,9.9,8.1,18.5,18.5,18.5h77.9
		c9.9,0,18.5-8.1,18.5-18.5V266.6H499c15.5,0,24.1-18.5,13.6-30.2L364.3,63.3z"/>
	<path d="M596.3,431.9H540c-10.5,0-18.5,8.6-18.5,18.5v100.1H179.1V450.4c0-10.5-8.6-18.5-18.5-18.5h-56.3
		c-10.5,0-18.5,8.6-18.5,18.5v174.3c0,10.5,8.6,18.5,18.5,18.5h491.4c10.5,0,18.5-8.6,18.5-18.5V450.4
		C614.9,440.6,606.2,431.9,596.3,431.9L596.3,431.9z"/>
</g>
</svg>
